<?xml version="1.0" encoding="utf-8"?>
<!-- Generator: Adobe Illustrator 22.0.1, SVG Export Plug-In . SVG Version: 6.00 Build 0)  -->
<svg version="1.1" id="Layer_1" xmlns="http://www.w3.org/2000/svg" xmlns:xlink="http://www.w3.org/1999/xlink" x="0px" y="0px"
	 viewBox="0 0 11.4 14.7" style="enable-background:new 0 0 11.4 14.7;" xml:space="preserve">
<style type="text/css">
	.st0{fill:#CD4629;}
</style>
<path class="st0" d="M9.8,0H1.6C0.7,0,0,0.7,0,1.6v13l5.7-2.4l5.7,2.4v-13C11.4,0.7,10.7,0,9.8,0z"/>
</svg>
