<?xml version="1.0" encoding="utf-8"?>
<!-- Generator: Adobe Illustrator 22.0.1, SVG Export Plug-In . SVG Version: 6.00 Build 0)  -->
<svg version="1.1" id="Layer_1" xmlns="http://www.w3.org/2000/svg" xmlns:xlink="http://www.w3.org/1999/xlink" x="0px" y="0px"
	 viewBox="0 0 24 24" style="enable-background:new 0 0 24 24;" xml:space="preserve">
<style type="text/css">
	.st0{fill:none;stroke:#FFFFFF;stroke-width:1.8;stroke-linecap:round;stroke-linejoin:round;}
	.st1{fill:#FFFFFF;}
</style>
<line class="st0" x1="5.7" y1="5.3" x2="22.4" y2="5.3"/>
<line class="st0" x1="5.7" y1="18.9" x2="22.4" y2="18.9"/>
<line class="st0" x1="5.7" y1="12" x2="22.4" y2="12"/>
<circle class="st1" cx="1.8" cy="5.3" r="1.3"/>
</svg>
