<?xml version="1.0" encoding="utf-8"?>
<!-- Generator: Adobe Illustrator 22.0.1, SVG Export Plug-In . SVG Version: 6.00 Build 0)  -->
<svg version="1.1" id="Layer_1" xmlns="http://www.w3.org/2000/svg" xmlns:xlink="http://www.w3.org/1999/xlink" x="0px" y="0px"
	 viewBox="0 0 55.4 75.6" style="enable-background:new 0 0 55.4 75.6;" xml:space="preserve">
<style type="text/css">
	.st0{fill:none;stroke:#FFFFFF;stroke-width:4.9027;stroke-linecap:round;stroke-linejoin:round;}
</style>
<line class="st0" x1="28" y1="5.7" x2="28" y2="54.9"/>
<polyline class="st0" points="7.9,34.9 28,54.9 48,34.9 "/>
<line class="st0" x1="6.4" y1="69.2" x2="49.5" y2="69.2"/>
</svg>
