<?xml version="1.0" encoding="utf-8"?>
<!-- Generator: Adobe Illustrator 22.0.1, SVG Export Plug-In . SVG Version: 6.00 Build 0)  -->
<svg version="1.1" id="Layer_1" xmlns="http://www.w3.org/2000/svg" xmlns:xlink="http://www.w3.org/1999/xlink" x="0px" y="0px"
	 viewBox="0 0 1024 1280" style="enable-background:new 0 0 1024 1280;" xml:space="preserve">
<style type="text/css">
	.st0{stroke:#000000;stroke-width:40;stroke-miterlimit:10;}
</style>
<polygon class="st0" points="517.3,67.9 658.1,356.3 985,407.6 751.1,651.1 802.3,971.5 517.3,820.9 225.5,971.5 283.2,651.1 
	46.1,407.6 376.1,356.3 "/>
</svg>
