<?xml version="1.0" encoding="utf-8"?>
<!-- Generator: Adobe Illustrator 22.0.1, SVG Export Plug-In . SVG Version: 6.00 Build 0)  -->
<svg version="1.1" id="Layer_1" xmlns="http://www.w3.org/2000/svg" xmlns:xlink="http://www.w3.org/1999/xlink" x="0px" y="0px"
	 viewBox="0 0 63 56" style="enable-background:new 0 0 63 56;" xml:space="preserve">
<style type="text/css">
	.st0{fill:#FFFFFF;}
</style>
<g>
	<g>
		<path class="st0" d="M23.3,34L19,38.2V16.5c0-0.6-0.4-1-1-1s-1,0.4-1,1v21.7L12.7,34c-0.4-0.4-1-0.4-1.4,0s-0.4,1,0,1.4l6,6
			c0.1,0.1,0.2,0.2,0.3,0.2c0.1,0.1,0.3,0.1,0.4,0.1s0.3,0,0.4-0.1s0.2-0.1,0.3-0.2l6-6c0.4-0.4,0.4-1,0-1.4S23.7,33.6,23.3,34z"/>
		<path class="st0" d="M40,37H30c-0.6,0-1,0.4-1,1s0.4,1,1,1h10c0.6,0,1-0.4,1-1S40.6,37,40,37z"/>
		<path class="st0" d="M44,26.4H30c-0.6,0-1,0.4-1,1s0.4,1,1,1h14c0.6,0,1-0.4,1-1S44.6,26.4,44,26.4z"/>
		<path class="st0" d="M50,16.4H30c-0.6,0-1,0.4-1,1s0.4,1,1,1h20c0.6,0,1-0.4,1-1S50.6,16.4,50,16.4z"/>
	</g>
</g>
</svg>
